 nuclei,nninteraction,density,pycno_rate
 C-C,M3Y-SPVH            ,   1000000000.0000000      ,   9.9982562764795847E-016
 C-C,M3Y-SPVH            ,   1990000000.0000000      ,   2.0487112429185059E-006
 C-C,M3Y-SPVH            ,   2980000000.0000000      ,  0.20953709953332703     
 C-C,M3Y-SPVH            ,   3970000000.0000000      ,   490.92529678019150     
 C-C,M3Y-SPVH            ,   4960000000.0000000      ,   159845.63471560311     
 C-C,M3Y-SPVH            ,   5950000000.0000000      ,   15604046.004394379     
 C-C,M3Y-SPVH            ,   6940000000.0000000      ,   679537933.20986319     
 C-C,M3Y-SPVH            ,   7930000000.0000000      ,   16624829476.751165     
 C-C,M3Y-SPVH            ,   8920000000.0000000      ,   263965653664.26898     
 C-C,M3Y-SPVH            ,   9910000000.0000000      ,   3001508409173.4209     
 C-C,M3Y-SPVH            ,   10900000000.000000      ,   26175800867332.711     
 C-C,M3Y-SPVH            ,   11890000000.000000      ,   183820765135007.12     
 C-C,M3Y-SPVH            ,   12880000000.000000      ,   1079551447269062.6     
 C-C,M3Y-SPVH            ,   13870000000.000000      ,   5452066020403483.0     
 C-C,M3Y-SPVH            ,   14860000000.000000      ,   24213371954907540.     
 C-C,M3Y-SPVH            ,   15850000000.000000      ,   96328860724072192.     
 C-C,M3Y-SPVH            ,   16840000000.000000      ,   3.4763247209481843E+017
 C-C,M3Y-SPVH            ,   17830000000.000000      ,   1.1551380766748828E+018
 C-C,M3Y-SPVH            ,   18820000000.000000      ,   3.5558637730404915E+018
 C-C,M3Y-SPVH            ,   19810000000.000000      ,   1.0259270924768928E+019
 C-C,M3Y-SPVH            ,   20800000000.000000      ,   2.7876799048500437E+019
 C-C,M3Y-SPVH            ,   21790000000.000000      ,   7.1775842416838885E+019
 C-C,M3Y-SPVH            ,   22780000000.000000      ,   1.7602270254962639E+020
 C-C,M3Y-SPVH            ,   23770000000.000000      ,   4.1340662673427117E+020
 C-C,M3Y-SPVH            ,   24760000000.000000      ,   9.3278842915427215E+020
 C-C,M3Y-SPVH            ,   25750000000.000000      ,   2.0283581424591084E+021
 C-C,M3Y-SPVH            ,   26740000000.000000      ,   4.2671097074724535E+021
 C-C,M3Y-SPVH            ,   27730000000.000000      ,   8.6935554920199309E+021
 C-C,M3Y-SPVH            ,   28720000000.000000      ,   1.7219017249822524E+022
 C-C,M3Y-SPVH            ,   29710000000.000000      ,   3.3224693059840819E+022
 C-C,M3Y-SPVH            ,   30700000000.000000      ,   6.2478937808436887E+022
 C-C,M3Y-SPVH            ,   31690000000.000000      ,   1.1487873661330246E+023
 C-C,M3Y-SPVH            ,   32680000000.000000      ,   2.0670400532526197E+023
 C-C,M3Y-SPVH            ,   33670000000.000000      ,   3.6470538034380521E+023
 C-C,M3Y-SPVH            ,   34660000000.000000      ,   6.3085011972062719E+023
 C-C,M3Y-SPVH            ,   35650000000.000000      ,   1.0731175717726358E+024
 C-C,M3Y-SPVH            ,   36640000000.000000      ,   1.7947824624819947E+024
 C-C,M3Y-SPVH            ,   37630000000.000000      ,   2.9521145152613620E+024
 C-C,M3Y-SPVH            ,   38620000000.000000      ,   4.7878288158588055E+024
 C-C,M3Y-SPVH            ,   39610000000.000000      ,   7.6657334114454524E+024
 C-C,M3Y-SPVH            ,   40600000000.000000      ,   1.2086158283434304E+025
 C-C,M3Y-SPVH            ,   41590000000.000000      ,   1.8831595504284319E+025
 C-C,M3Y-SPVH            ,   42580000000.000000      ,   2.9004277126725326E+025
 C-C,M3Y-SPVH            ,   43570000000.000000      ,   4.4172993296116101E+025
 C-C,M3Y-SPVH            ,   44560000000.000000      ,   6.6568900927620801E+025
 C-C,M3Y-SPVH            ,   45550000000.000000      ,   9.9361411977027931E+025
 C-C,M3Y-SPVH            ,   46540000000.000000      ,   1.4690347711411504E+026
 C-C,M3Y-SPVH            ,   47530000000.000000      ,   2.1532492146764980E+026
 C-C,M3Y-SPVH            ,   48520000000.000000      ,   3.1361668623093653E+026
 C-C,M3Y-SPVH            ,   49510000000.000000      ,   4.4979086994234189E+026
 C-C,M3Y-SPVH            ,   50500000000.000000      ,   6.3938580977917364E+026
 C-C,M3Y-SPVH            ,   51490000000.000000      ,   9.0212431749645608E+026
 C-C,M3Y-SPVH            ,   52480000000.000000      ,   1.2634620669611985E+027
 C-C,M3Y-SPVH            ,   53470000000.000000      ,   1.7566527696924792E+027
 C-C,M3Y-SPVH            ,   54460000000.000000      ,   2.4251556193443011E+027
 C-C,M3Y-SPVH            ,   55450000000.000000      ,   3.3259277146458570E+027
 C-C,M3Y-SPVH            ,   56440000000.000000      ,   4.5331840817438688E+027
 C-C,M3Y-SPVH            ,   57430000000.000000      ,   6.1430677697304159E+027
 C-C,M3Y-SPVH            ,   58420000000.000000      ,   8.2624325376591673E+027
 C-C,M3Y-SPVH            ,   59410000000.000000      ,   1.1059199109657195E+028
 C-C,M3Y-SPVH            ,   60400000000.000000      ,   1.4738729861674085E+028
 C-C,M3Y-SPVH            ,   61390000000.000000      ,   1.9484436056192175E+028
 C-C,M3Y-SPVH            ,   62380000000.000000      ,   2.5679718000549922E+028
 C-C,M3Y-SPVH            ,   63370000000.000000      ,   3.3638029386976166E+028
 C-C,M3Y-SPVH            ,   64360000000.000000      ,   4.3848776887087682E+028
 C-C,M3Y-SPVH            ,   65350000000.000000      ,   5.7008563973527792E+028
 C-C,M3Y-SPVH            ,   66340000000.000000      ,   7.3600448050610221E+028
 C-C,M3Y-SPVH            ,   67330000000.000000      ,   9.4641807899275554E+028
 C-C,M3Y-SPVH            ,   68320000000.000000      ,   1.2122015099984289E+029
 C-C,M3Y-SPVH            ,   69310000000.000000      ,   1.5466040943547035E+029
 C-C,M3Y-SPVH            ,   70300000000.000000      ,   1.9656725646283966E+029
 C-C,M3Y-SPVH            ,   71290000000.000000      ,   2.4886837483941480E+029
 C-C,M3Y-SPVH            ,   72280000000.000000      ,   3.1386507857933217E+029
 C-C,M3Y-SPVH            ,   73270000000.000000      ,   3.9433279464628798E+029
 C-C,M3Y-SPVH            ,   74260000000.000000      ,   4.9365601405486592E+029
 C-C,M3Y-SPVH            ,   75250000000.000000      ,   6.1592304660849235E+029
 C-C,M3Y-SPVH            ,   76240000000.000000      ,   7.6603452855495935E+029
 C-C,M3Y-SPVH            ,   77230000000.000000      ,   9.4985426295550668E+029
 C-C,M3Y-SPVH            ,   78220000000.000000      ,   1.1743915143077289E+030
 C-C,M3Y-SPVH            ,   79210000000.000000      ,   1.4480148813563407E+030
 C-C,M3Y-SPVH            ,   80200000000.000000      ,   1.7754352018367855E+030
 C-C,M3Y-SPVH            ,   81190000000.000000      ,   2.1748361193250146E+030
 C-C,M3Y-SPVH            ,   82180000000.000000      ,   2.6583580833889626E+030
 C-C,M3Y-SPVH            ,   83170000000.000000      ,   3.2340836527358057E+030
 C-C,M3Y-SPVH            ,   84160000000.000000      ,   3.9286729268843904E+030
 C-C,M3Y-SPVH            ,   85150000000.000000      ,   4.7651579889959943E+030
 C-C,M3Y-SPVH            ,   86140000000.000000      ,   5.7489402407378037E+030
 C-C,M3Y-SPVH            ,   87130000000.000000      ,   6.9358540985313048E+030
 C-C,M3Y-SPVH            ,   88120000000.000000      ,   8.3313775987936815E+030
 C-C,M3Y-SPVH            ,   89110000000.000000      ,   1.0001397146296028E+031
 C-C,M3Y-SPVH            ,   90100000000.000000      ,   1.1959614068566753E+031
 C-C,M3Y-SPVH            ,   91090000000.000000      ,   1.4293048385030333E+031
 C-C,M3Y-SPVH            ,   92080000000.000000      ,   1.7012541742487920E+031
 C-C,M3Y-SPVH            ,   93070000000.000000      ,   2.0253258692859067E+031
 C-C,M3Y-SPVH            ,   94060000000.000000      ,   2.3996729120072097E+031
 C-C,M3Y-SPVH            ,   95050000000.000000      ,   2.8416056456855809E+031
 C-C,M3Y-SPVH            ,   96040000000.000000      ,   3.3585295764746681E+031
 C-C,M3Y-SPVH            ,   97030000000.000000      ,   3.9571424177409439E+031
 C-C,M3Y-SPVH            ,   98020000000.000000      ,   4.6608649438248299E+031
 C-C,M3Y-SPVH            ,   99010000000.000000      ,   5.4746974599563773E+031
 C-C,M3Y-SPVH            ,   100000000000.00000      ,   6.4143404782153348E+031
 C-C,M3Y-bcc-static      ,   1000000000.0000000      ,   3.9150430316899443E-014
 C-C,M3Y-bcc-static      ,   1990000000.0000000      ,   8.1351070029553582E-005
 C-C,M3Y-bcc-static      ,   2980000000.0000000      ,   8.3829025058554141     
 C-C,M3Y-bcc-static      ,   3970000000.0000000      ,   19739.172952997458     
 C-C,M3Y-bcc-static      ,   4960000000.0000000      ,   6451133.3833792154     
 C-C,M3Y-bcc-static      ,   5950000000.0000000      ,   631617367.68212903     
 C-C,M3Y-bcc-static      ,   6940000000.0000000      ,   27573030656.307171     
 C-C,M3Y-bcc-static      ,   7930000000.0000000      ,   675957766004.04895     
 C-C,M3Y-bcc-static      ,   8920000000.0000000      ,   10751771860562.824     
 C-C,M3Y-bcc-static      ,   9910000000.0000000      ,   122447128313589.11     
 C-C,M3Y-bcc-static      ,   10900000000.000000      ,   1069327750917581.0     
 C-C,M3Y-bcc-static      ,   11890000000.000000      ,   7518766797936868.0     
 C-C,M3Y-bcc-static      ,   12880000000.000000      ,   44206526252474200.     
 C-C,M3Y-bcc-static      ,   13870000000.000000      ,   2.2348736506245558E+017
 C-C,M3Y-bcc-static      ,   14860000000.000000      ,   9.9348212730219610E+017
 C-C,M3Y-bcc-static      ,   15850000000.000000      ,   3.9558809355798661E+018
 C-C,M3Y-bcc-static      ,   16840000000.000000      ,   1.4287697732550216E+019
 C-C,M3Y-bcc-static      ,   17830000000.000000      ,   4.7512445508808278E+019
 C-C,M3Y-bcc-static      ,   18820000000.000000      ,   1.4636234304493532E+020
 C-C,M3Y-bcc-static      ,   19810000000.000000      ,   4.2256447233712829E+020
 C-C,M3Y-bcc-static      ,   20800000000.000000      ,   1.1489339607808373E+021
 C-C,M3Y-bcc-static      ,   21790000000.000000      ,   2.9599968009208175E+021
 C-C,M3Y-bcc-static      ,   22780000000.000000      ,   7.2632156480359755E+021
 C-C,M3Y-bcc-static      ,   23770000000.000000      ,   1.7067612190818578E+022
 C-C,M3Y-bcc-static      ,   24760000000.000000      ,   3.8530301405843788E+022
 C-C,M3Y-bcc-static      ,   25750000000.000000      ,   8.3825781259974023E+022
 C-C,M3Y-bcc-static      ,   26740000000.000000      ,   1.7642946402334039E+023
 C-C,M3Y-bcc-static      ,   27730000000.000000      ,   3.5960889997480851E+023
 C-C,M3Y-bcc-static      ,   28720000000.000000      ,   7.1257252118354475E+023
 C-C,M3Y-bcc-static      ,   29710000000.000000      ,   1.3755044330313919E+024
 C-C,M3Y-bcc-static      ,   30700000000.000000      ,   2.5876651966078272E+024
 C-C,M3Y-bcc-static      ,   31690000000.000000      ,   4.7597169044435323E+024
 C-C,M3Y-bcc-static      ,   32680000000.000000      ,   8.5674466668226960E+024
 C-C,M3Y-bcc-static      ,   33670000000.000000      ,   1.5121683348129574E+025
 C-C,M3Y-bcc-static      ,   34660000000.000000      ,   2.6165821088646700E+025
 C-C,M3Y-bcc-static      ,   35650000000.000000      ,   4.4524676057178584E+025
 C-C,M3Y-bcc-static      ,   36640000000.000000      ,   7.4491364792689779E+025
 C-C,M3Y-bcc-static      ,   37630000000.000000      ,   1.2256419036685477E+026
 C-C,M3Y-bcc-static      ,   38620000000.000000      ,   1.9883882173230841E+026
 C-C,M3Y-bcc-static      ,   39610000000.000000      ,   3.1845241736963334E+026
 C-C,M3Y-bcc-static      ,   40600000000.000000      ,   5.0223121311799354E+026
 C-C,M3Y-bcc-static      ,   41590000000.000000      ,   7.8275099677101310E+026
 C-C,M3Y-bcc-static      ,   42580000000.000000      ,   1.2059139826866290E+027
 C-C,M3Y-bcc-static      ,   43570000000.000000      ,   1.8370701255372852E+027
 C-C,M3Y-bcc-static      ,   44560000000.000000      ,   2.7691846371456688E+027
 C-C,M3Y-bcc-static      ,   45550000000.000000      ,   4.1343481596438527E+027
 C-C,M3Y-bcc-static      ,   46540000000.000000      ,   6.1140277971689967E+027
 C-C,M3Y-bcc-static      ,   47530000000.000000      ,   8.9638188836744374E+027
 C-C,M3Y-bcc-static      ,   48520000000.000000      ,   1.3058668440742958E+028
 C-C,M3Y-bcc-static      ,   49510000000.000000      ,   1.8733069849046218E+028
 C-C,M3Y-bcc-static      ,   50500000000.000000      ,   2.6635301671158112E+028
 C-C,M3Y-bcc-static      ,   51490000000.000000      ,   3.7588513218757426E+028
 C-C,M3Y-bcc-static      ,   52480000000.000000      ,   5.2655411276644016E+028
 C-C,M3Y-bcc-static      ,   53470000000.000000      ,   7.3224559234895288E+028
 C-C,M3Y-bcc-static      ,   54460000000.000000      ,   1.0111103800334866E+029
 C-C,M3Y-bcc-static      ,   55450000000.000000      ,   1.3869411355389721E+029
 C-C,M3Y-bcc-static      ,   56440000000.000000      ,   1.8907454585818107E+029
 C-C,M3Y-bcc-static      ,   57430000000.000000      ,   2.5627001452788106E+029
 C-C,M3Y-bcc-static      ,   58420000000.000000      ,   3.4474783028147358E+029
 C-C,M3Y-bcc-static      ,   59410000000.000000      ,   4.6152670127558305E+029
 C-C,M3Y-bcc-static      ,   60400000000.000000      ,   6.1519276857765946E+029
 C-C,M3Y-bcc-static      ,   61390000000.000000      ,   8.1342128726951663E+029
 C-C,M3Y-bcc-static      ,   62380000000.000000      ,   1.0722425750896775E+030
 C-C,M3Y-bcc-static      ,   63370000000.000000      ,   1.4047759682663109E+030
 C-C,M3Y-bcc-static      ,   64360000000.000000      ,   1.8314978011009513E+030
 C-C,M3Y-bcc-static      ,   65350000000.000000      ,   2.3815523153127355E+030
 C-C,M3Y-bcc-static      ,   66340000000.000000      ,   3.0751786001619269E+030
 C-C,M3Y-bcc-static      ,   67330000000.000000      ,   3.9549552021595889E+030
 C-C,M3Y-bcc-static      ,   68320000000.000000      ,   5.0664160265458829E+030
 C-C,M3Y-bcc-static      ,   69310000000.000000      ,   6.4650448150380954E+030
 C-C,M3Y-bcc-static      ,   70300000000.000000      ,   8.2180507639564031E+030
 C-C,M3Y-bcc-static      ,   71290000000.000000      ,   1.0406185206641860E+031
 C-C,M3Y-bcc-static      ,   72280000000.000000      ,   1.3125867052257978E+031
 C-C,M3Y-bcc-static      ,   73270000000.000000      ,   1.6493395105970662E+031
 C-C,M3Y-bcc-static      ,   74260000000.000000      ,   2.0650605437949771E+031
 C-C,M3Y-bcc-static      ,   75250000000.000000      ,   2.5768851189216608E+031
 C-C,M3Y-bcc-static      ,   76240000000.000000      ,   3.2053560418685288E+031
 C-C,M3Y-bcc-static      ,   77230000000.000000      ,   3.9750568446634068E+031
 C-C,M3Y-bcc-static      ,   78220000000.000000      ,   4.9153770883018112E+031
 C-C,M3Y-bcc-static      ,   79210000000.000000      ,   6.0614103529326101E+031
 C-C,M3Y-bcc-static      ,   80200000000.000000      ,   7.4329530830825859E+031
 C-C,M3Y-bcc-static      ,   81190000000.000000      ,   9.1062214316013754E+031
 C-C,M3Y-bcc-static      ,   82180000000.000000      ,   1.1132160931303297E+032
 C-C,M3Y-bcc-static      ,   83170000000.000000      ,   1.3544744358952189E+032
 C-C,M3Y-bcc-static      ,   84160000000.000000      ,   1.6455772196494861E+032
 C-C,M3Y-bcc-static      ,   85150000000.000000      ,   1.9961896789224783E+032
 C-C,M3Y-bcc-static      ,   86140000000.000000      ,   2.4085945685643808E+032
 C-C,M3Y-bcc-static      ,   87130000000.000000      ,   2.9062072337835710E+032
 C-C,M3Y-bcc-static      ,   88120000000.000000      ,   3.4913509246941245E+032
 C-C,M3Y-bcc-static      ,   89110000000.000000      ,   4.1916668723552403E+032
 C-C,M3Y-bcc-static      ,   90100000000.000000      ,   5.0129343705467705E+032
 C-C,M3Y-bcc-static      ,   91090000000.000000      ,   5.9916696751080836E+032
 C-C,M3Y-bcc-static      ,   92080000000.000000      ,   7.1324665031347942E+032
 C-C,M3Y-bcc-static      ,   93070000000.000000      ,   8.4920470688391867E+032
 C-C,M3Y-bcc-static      ,   94060000000.000000      ,   1.0062731822473407E+033
 C-C,M3Y-bcc-static      ,   95050000000.000000      ,   1.1917178855535996E+033
 C-C,M3Y-bcc-static      ,   96040000000.000000      ,   1.4086531648601902E+033
 C-C,M3Y-bcc-static      ,   97030000000.000000      ,   1.6598975570124226E+033
 C-C,M3Y-bcc-static      ,   98020000000.000000      ,   1.9552860482275132E+033
 C-C,M3Y-bcc-static      ,   99010000000.000000      ,   2.2969289806840816E+033
 C-C,M3Y-bcc-static      ,   100000000000.00000      ,   2.6914270051599694E+033
 C-C,M3Y-bcc-ws          ,   1000000000.0000000      ,   4.1144151606394142E-010
 C-C,M3Y-bcc-ws          ,   1990000000.0000000      ,  0.33047247836294597     
 C-C,M3Y-bcc-ws          ,   2980000000.0000000      ,   20468.606730611849     
 C-C,M3Y-bcc-ws          ,   3970000000.0000000      ,   34258702.642190978     
 C-C,M3Y-bcc-ws          ,   4960000000.0000000      ,   8685528288.8189888     
 C-C,M3Y-bcc-ws          ,   5950000000.0000000      ,   695761838300.54456     
 C-C,M3Y-bcc-ws          ,   6940000000.0000000      ,   25752414265754.871     
 C-C,M3Y-bcc-ws          ,   7930000000.0000000      ,   549064403244517.62     
 C-C,M3Y-bcc-ws          ,   8920000000.0000000      ,   7741113104856663.0     
 C-C,M3Y-bcc-ws          ,   9910000000.0000000      ,   79299928763923488.     
 C-C,M3Y-bcc-ws          ,   10900000000.000000      ,   6.3024442442416013E+017
 C-C,M3Y-bcc-ws          ,   11890000000.000000      ,   4.0713843014940078E+018
 C-C,M3Y-bcc-ws          ,   12880000000.000000      ,   2.2166239226047078E+019
 C-C,M3Y-bcc-ws          ,   13870000000.000000      ,   1.0445684385402189E+020
 C-C,M3Y-bcc-ws          ,   14860000000.000000      ,   4.3527540343100965E+020
 C-C,M3Y-bcc-ws          ,   15850000000.000000      ,   1.6325618750367211E+021
 C-C,M3Y-bcc-ws          ,   16840000000.000000      ,   5.5774868949987492E+021
 C-C,M3Y-bcc-ws          ,   17830000000.000000      ,   1.7609045693501457E+022
 C-C,M3Y-bcc-ws          ,   18820000000.000000      ,   5.1668439982201748E+022
 C-C,M3Y-bcc-ws          ,   19810000000.000000      ,   1.4250015935834576E+023
 C-C,M3Y-bcc-ws          ,   20800000000.000000      ,   3.7108218877166024E+023
 C-C,M3Y-bcc-ws          ,   21790000000.000000      ,   9.1776647414843609E+023
 C-C,M3Y-bcc-ws          ,   22780000000.000000      ,   2.1664656658353805E+024
 C-C,M3Y-bcc-ws          ,   23770000000.000000      ,   4.9069250792636462E+024
 C-C,M3Y-bcc-ws          ,   24760000000.000000      ,   1.0695753991285066E+025
 C-C,M3Y-bcc-ws          ,   25750000000.000000      ,   2.2503665165548286E+025
 C-C,M3Y-bcc-ws          ,   26740000000.000000      ,   4.5872365363187239E+025
 C-C,M3Y-bcc-ws          ,   27730000000.000000      ,   9.0678109640087856E+025
 C-C,M3Y-bcc-ws          ,   28720000000.000000      ,   1.7447620120391603E+026
 C-C,M3Y-bcc-ws          ,   29710000000.000000      ,   3.2742176218361267E+026
 C-C,M3Y-bcc-ws          ,   30700000000.000000      ,   5.9945932340014840E+026
 C-C,M3Y-bcc-ws          ,   31690000000.000000      ,   1.0741734929293219E+027
 C-C,M3Y-bcc-ws          ,   32680000000.000000      ,   1.8853544770539535E+027
 C-C,M3Y-bcc-ws          ,   33670000000.000000      ,   3.2476591190338178E+027
 C-C,M3Y-bcc-ws          ,   34660000000.000000      ,   5.4889581849886987E+027
 C-C,M3Y-bcc-ws          ,   35650000000.000000      ,   9.1301189163778924E+027
 C-C,M3Y-bcc-ws          ,   36640000000.000000      ,   1.4942275278174094E+028
 C-C,M3Y-bcc-ws          ,   37630000000.000000      ,   2.4066138108402242E+028
 C-C,M3Y-bcc-ws          ,   38620000000.000000      ,   3.8243372558456392E+028
 C-C,M3Y-bcc-ws          ,   39610000000.000000      ,   6.0031143287423659E+028
 C-C,M3Y-bcc-ws          ,   40600000000.000000      ,   9.2846074975425044E+028
 C-C,M3Y-bcc-ws          ,   41590000000.000000      ,   1.4198711105468717E+029
 C-C,M3Y-bcc-ws          ,   42580000000.000000      ,   2.1474973618985294E+029
 C-C,M3Y-bcc-ws          ,   43570000000.000000      ,   3.2132714445525339E+029
 C-C,M3Y-bcc-ws          ,   44560000000.000000      ,   4.7597364502082650E+029
 C-C,M3Y-bcc-ws          ,   45550000000.000000      ,   6.9862094235691678E+029
 C-C,M3Y-bcc-ws          ,   46540000000.000000      ,   1.0161334274348088E+030
 C-C,M3Y-bcc-ws          ,   47530000000.000000      ,   1.4658244457371288E+030
 C-C,M3Y-bcc-ws          ,   48520000000.000000      ,   2.1019493135083954E+030
 C-C,M3Y-bcc-ws          ,   49510000000.000000      ,   2.9691235682389381E+030
 C-C,M3Y-bcc-ws          ,   50500000000.000000      ,   4.1584120190147683E+030
 C-C,M3Y-bcc-ws          ,   51490000000.000000      ,   5.7826077172514517E+030
 C-C,M3Y-bcc-ws          ,   52480000000.000000      ,   7.9845838404495543E+030
 C-C,M3Y-bcc-ws          ,   53470000000.000000      ,   1.0948206999247373E+031
 C-C,M3Y-bcc-ws          ,   54460000000.000000      ,   1.4910514077505196E+031
 C-C,M3Y-bcc-ws          ,   55450000000.000000      ,   2.0178349877180499E+031
 C-C,M3Y-bcc-ws          ,   56440000000.000000      ,   2.7146584577942040E+031
 C-C,M3Y-bcc-ws          ,   57430000000.000000      ,   3.6320417167160050E+031
 C-C,M3Y-bcc-ws          ,   58420000000.000000      ,   4.8243362142578865E+031
 C-C,M3Y-bcc-ws          ,   59410000000.000000      ,   6.3785778337497064E+031
 C-C,M3Y-bcc-ws          ,   60400000000.000000      ,   8.3991125463850873E+031
 C-C,M3Y-bcc-ws          ,   61390000000.000000      ,   1.0973201381853096E+032
 C-C,M3Y-bcc-ws          ,   62380000000.000000      ,   1.4295636841923232E+032
 C-C,M3Y-bcc-ws          ,   63370000000.000000      ,   1.8514154085734651E+032
 C-C,M3Y-bcc-ws          ,   64360000000.000000      ,   2.3866026034645174E+032
 C-C,M3Y-bcc-ws          ,   65350000000.000000      ,   3.0690100111485250E+032
 C-C,M3Y-bcc-ws          ,   66340000000.000000      ,   3.9197440645826131E+032
 C-C,M3Y-bcc-ws          ,   67330000000.000000      ,   4.9872383706187770E+032
 C-C,M3Y-bcc-ws          ,   68320000000.000000      ,   6.3216436129632800E+032
 C-C,M3Y-bcc-ws          ,   69310000000.000000      ,   7.9834064520802484E+032
 C-C,M3Y-bcc-ws          ,   70300000000.000000      ,   1.0044946766678433E+033
 C-C,M3Y-bcc-ws          ,   71290000000.000000      ,   1.2592292715276015E+033
 C-C,M3Y-bcc-ws          ,   72280000000.000000      ,   1.5726999107500586E+033
 C-C,M3Y-bcc-ws          ,   73270000000.000000      ,   1.9570441428376444E+033
 C-C,M3Y-bcc-ws          ,   74260000000.000000      ,   2.4269574588632060E+033
 C-C,M3Y-bcc-ws          ,   75250000000.000000      ,   3.0000429451756896E+033
 C-C,M3Y-bcc-ws          ,   76240000000.000000      ,   3.6972101467460662E+033
 C-C,M3Y-bcc-ws          ,   77230000000.000000      ,   4.5432570813956802E+033
 C-C,M3Y-bcc-ws          ,   78220000000.000000      ,   5.5675728663257153E+033
 C-C,M3Y-bcc-ws          ,   79210000000.000000      ,   6.8049547358542663E+033
 C-C,M3Y-bcc-ws          ,   80200000000.000000      ,   8.2720142505670870E+033
 C-C,M3Y-bcc-ws          ,   81190000000.000000      ,   1.0047101197591988E+034
 C-C,M3Y-bcc-ws          ,   82180000000.000000      ,   1.2178328011957877E+034
 C-C,M3Y-bcc-ws          ,   83170000000.000000      ,   1.4693869769763691E+034
 C-C,M3Y-bcc-ws          ,   84160000000.000000      ,   1.7704801576491947E+034
 C-C,M3Y-bcc-ws          ,   85150000000.000000      ,   2.1302520674254005E+034
 C-C,M3Y-bcc-ws          ,   86140000000.000000      ,   2.5497466422102157E+034
 C-C,M3Y-bcc-ws          ,   87130000000.000000      ,   3.0521832465845374E+034
 C-C,M3Y-bcc-ws          ,   88120000000.000000      ,   3.6380917767429784E+034
 C-C,M3Y-bcc-ws          ,   89110000000.000000      ,   4.3341841153650709E+034
 C-C,M3Y-bcc-ws          ,   90100000000.000000      ,   5.1439451395228406E+034
 C-C,M3Y-bcc-ws          ,   91090000000.000000      ,   6.1020832306173489E+034
 C-C,M3Y-bcc-ws          ,   92080000000.000000      ,   7.2100323600605223E+034
 C-C,M3Y-bcc-ws          ,   93070000000.000000      ,   8.5215259873886116E+034
 C-C,M3Y-bcc-ws          ,   94060000000.000000      ,   1.0024616351448014E+035
 C-C,M3Y-bcc-ws          ,   95050000000.000000      ,   1.1787200867860759E+035
 C-C,M3Y-bcc-ws          ,   96040000000.000000      ,   1.3834526094911775E+035
 C-C,M3Y-bcc-ws          ,   97030000000.000000      ,   1.6188300816885787E+035
 C-C,M3Y-bcc-ws          ,   98020000000.000000      ,   1.8937647408287299E+035
 C-C,M3Y-bcc-ws          ,   99010000000.000000      ,   2.2095011412856146E+035
 C-C,M3Y-bcc-ws          ,   100000000000.00000      ,   2.5715480389082788E+035
 C-C,M3Y-bcc-relax       ,   1000000000.0000000      ,   3.6846647319372089E-010
 C-C,M3Y-bcc-relax       ,   1990000000.0000000      ,  0.29825055272152301     
 C-C,M3Y-bcc-relax       ,   2980000000.0000000      ,   18549.475111301581     
 C-C,M3Y-bcc-relax       ,   3970000000.0000000      ,   31132898.494522002     
 C-C,M3Y-bcc-relax       ,   4960000000.0000000      ,   7909362525.7051115     
 C-C,M3Y-bcc-relax       ,   5950000000.0000000      ,   634620963028.75000     
 C-C,M3Y-bcc-relax       ,   6940000000.0000000      ,   23520928803506.781     
 C-C,M3Y-bcc-relax       ,   7930000000.0000000      ,   502056657584849.25     
 C-C,M3Y-bcc-relax       ,   8920000000.0000000      ,   7085307632727909.0     
 C-C,M3Y-bcc-relax       ,   9910000000.0000000      ,   72644388553759968.     
 C-C,M3Y-bcc-relax       ,   10900000000.000000      ,   5.7779132847101811E+017
 C-C,M3Y-bcc-relax       ,   11890000000.000000      ,   3.7351092907599370E+018
 C-C,M3Y-bcc-relax       ,   12880000000.000000      ,   2.0348138942582276E+019
 C-C,M3Y-bcc-relax       ,   13870000000.000000      ,   9.5943978189658817E+019
 C-C,M3Y-bcc-relax       ,   14860000000.000000      ,   4.0001220322482415E+020
 C-C,M3Y-bcc-relax       ,   15850000000.000000      ,   1.5010320466138127E+021
 C-C,M3Y-bcc-relax       ,   16840000000.000000      ,   5.1304471148253078E+021
 C-C,M3Y-bcc-relax       ,   17830000000.000000      ,   1.6204505893578151E+022
 C-C,M3Y-bcc-relax       ,   18820000000.000000      ,   4.7566054627677680E+022
 C-C,M3Y-bcc-relax       ,   19810000000.000000      ,   1.3123470681928627E+023
 C-C,M3Y-bcc-relax       ,   20800000000.000000      ,   3.4186597768045802E+023
 C-C,M3Y-bcc-relax       ,   21790000000.000000      ,   8.4578921157637983E+023
 C-C,M3Y-bcc-relax       ,   22780000000.000000      ,   1.9971859184708256E+024
 C-C,M3Y-bcc-relax       ,   23770000000.000000      ,   4.5248697339491525E+024
 C-C,M3Y-bcc-relax       ,   24760000000.000000      ,   9.8657898701992617E+024
 C-C,M3Y-bcc-relax       ,   25750000000.000000      ,   2.0763084457947405E+025
 C-C,M3Y-bcc-relax       ,   26740000000.000000      ,   4.2335307686941826E+025
 C-C,M3Y-bcc-relax       ,   27730000000.000000      ,   8.3707088921544098E+025
 C-C,M3Y-bcc-relax       ,   28720000000.000000      ,   1.6110156433498697E+026
 C-C,M3Y-bcc-relax       ,   29710000000.000000      ,   3.0239234281834145E+026
 C-C,M3Y-bcc-relax       ,   30700000000.000000      ,   5.5375652020083878E+026
 C-C,M3Y-bcc-relax       ,   31690000000.000000      ,   9.9248947291716627E+026
 C-C,M3Y-bcc-relax       ,   32680000000.000000      ,   1.7423425094251061E+027
 C-C,M3Y-bcc-relax       ,   33670000000.000000      ,   3.0019046954636859E+027
 C-C,M3Y-bcc-relax       ,   34660000000.000000      ,   5.0745721380769539E+027
 C-C,M3Y-bcc-relax       ,   35650000000.000000      ,   8.4424066400684664E+027
 C-C,M3Y-bcc-relax       ,   36640000000.000000      ,   1.3819245392410673E+028
 C-C,M3Y-bcc-relax       ,   37630000000.000000      ,   2.2261239904797012E+028
 C-C,M3Y-bcc-relax       ,   38620000000.000000      ,   3.5381170889670547E+028
 C-C,M3Y-bcc-relax       ,   39610000000.000000      ,   5.5547376185737694E+028
 C-C,M3Y-bcc-relax       ,   40600000000.000000      ,   8.5924964965896060E+028
 C-C,M3Y-bcc-relax       ,   41590000000.000000      ,   1.3142309342572097E+029
 C-C,M3Y-bcc-relax       ,   42580000000.000000      ,   1.9880189286963020E+029
 C-C,M3Y-bcc-relax       ,   43570000000.000000      ,   2.9750800912051888E+029
 C-C,M3Y-bcc-relax       ,   44560000000.000000      ,   4.4075359799123646E+029
 C-C,M3Y-bcc-relax       ,   45550000000.000000      ,   6.4701551353915594E+029
 C-C,M3Y-bcc-relax       ,   46540000000.000000      ,   9.4120117348740905E+029
 C-C,M3Y-bcc-relax       ,   47530000000.000000      ,   1.3579096427070662E+030
 C-C,M3Y-bcc-relax       ,   48520000000.000000      ,   1.9474529264341710E+030
 C-C,M3Y-bcc-relax       ,   49510000000.000000      ,   2.7512338494477721E+030
 C-C,M3Y-bcc-relax       ,   50500000000.000000      ,   3.8537185947240612E+030
 C-C,M3Y-bcc-relax       ,   51490000000.000000      ,   5.3595491230275630E+030
 C-C,M3Y-bcc-relax       ,   52480000000.000000      ,   7.4012947251645402E+030
 C-C,M3Y-bcc-relax       ,   53470000000.000000      ,   1.0149582871269680E+031
 C-C,M3Y-bcc-relax       ,   54460000000.000000      ,   1.3824407530437084E+031
 C-C,M3Y-bcc-relax       ,   55450000000.000000      ,   1.8710580140629801E+031
 C-C,M3Y-bcc-relax       ,   56440000000.000000      ,   2.5174654192197220E+031
 C-C,M3Y-bcc-relax       ,   57430000000.000000      ,   3.3685648277044678E+031
 C-C,M3Y-bcc-relax       ,   58420000000.000000      ,   4.4748295993658829E+031
 C-C,M3Y-bcc-relax       ,   59410000000.000000      ,   5.9170708611117629E+031
 C-C,M3Y-bcc-relax       ,   60400000000.000000      ,   7.7921883315673325E+031
 C-C,M3Y-bcc-relax       ,   61390000000.000000      ,   1.0181264056066650E+032
 C-C,M3Y-bcc-relax       ,   62380000000.000000      ,   1.3265187164416554E+032
 C-C,M3Y-bcc-relax       ,   63370000000.000000      ,   1.7181240229928094E+032
 C-C,M3Y-bcc-relax       ,   64360000000.000000      ,   2.2149849086007758E+032
 C-C,M3Y-bcc-relax       ,   65350000000.000000      ,   2.8485790760119064E+032
 C-C,M3Y-bcc-relax       ,   66340000000.000000      ,   3.6385329353423664E+032
 C-C,M3Y-bcc-relax       ,   67330000000.000000      ,   4.6298474691727631E+032
 C-C,M3Y-bcc-relax       ,   68320000000.000000      ,   5.8691320087420397E+032
 C-C,M3Y-bcc-relax       ,   69310000000.000000      ,   7.4125698117978496E+032
 C-C,M3Y-bcc-relax       ,   70300000000.000000      ,   9.3274789107316138E+032
 C-C,M3Y-bcc-relax       ,   71290000000.000000      ,   1.1693834394588248E+033
 C-C,M3Y-bcc-relax       ,   72280000000.000000      ,   1.4606054361341099E+033
 C-C,M3Y-bcc-relax       ,   73270000000.000000      ,   1.8176993022661614E+033
 C-C,M3Y-bcc-relax       ,   74260000000.000000      ,   2.2543295997965776E+033
 C-C,M3Y-bcc-relax       ,   75250000000.000000      ,   2.7868656322709116E+033
 C-C,M3Y-bcc-relax       ,   76240000000.000000      ,   3.4347528752433405E+033
 C-C,M3Y-bcc-relax       ,   77230000000.000000      ,   4.2210546959461068E+033
 C-C,M3Y-bcc-relax       ,   78220000000.000000      ,   5.1731063356966799E+033
 C-C,M3Y-bcc-relax       ,   79210000000.000000      ,   6.3232754214174981E+033
 C-C,M3Y-bcc-relax       ,   80200000000.000000      ,   7.6870382085528568E+033
 C-C,M3Y-bcc-relax       ,   81190000000.000000      ,   9.3372504607559066E+033
 C-C,M3Y-bcc-relax       ,   82180000000.000000      ,   1.1318683981699505E+034
 C-C,M3Y-bcc-relax       ,   83170000000.000000      ,   1.3657589971819160E+034
 C-C,M3Y-bcc-relax       ,   84160000000.000000      ,   1.6457283689838050E+034
 C-C,M3Y-bcc-relax       ,   85150000000.000000      ,   1.9802813482797525E+034
 C-C,M3Y-bcc-relax       ,   86140000000.000000      ,   2.3703984348581604E+034
 C-C,M3Y-bcc-relax       ,   87130000000.000000      ,   2.8376770674012431E+034
 C-C,M3Y-bcc-relax       ,   88120000000.000000      ,   3.3826237260464238E+034
 C-C,M3Y-bcc-relax       ,   89110000000.000000      ,   4.0300896726146488E+034
 C-C,M3Y-bcc-relax       ,   90100000000.000000      ,   4.7833333003213468E+034
 C-C,M3Y-bcc-relax       ,   91090000000.000000      ,   5.6746497396676184E+034
 C-C,M3Y-bcc-relax       ,   92080000000.000000      ,   6.7053959873639568E+034
 C-C,M3Y-bcc-relax       ,   93070000000.000000      ,   7.9255706971451689E+034
 C-C,M3Y-bcc-relax       ,   94060000000.000000      ,   9.3240923755494264E+034
 C-C,M3Y-bcc-relax       ,   95050000000.000000      ,   1.0964146083906407E+035
 C-C,M3Y-bcc-relax       ,   96040000000.000000      ,   1.2869255763194591E+035
 C-C,M3Y-bcc-relax       ,   97030000000.000000      ,   1.5059658669352574E+035
 C-C,M3Y-bcc-relax       ,   98020000000.000000      ,   1.7618312697749677E+035
 C-C,M3Y-bcc-relax       ,   99010000000.000000      ,   2.0556854233757418E+035
 C-C,M3Y-bcc-relax       ,   100000000000.00000      ,   2.3926596553511390E+035
 C-C,M3Y-fcc-static      ,   1000000000.0000000      ,   1.2316430147136154E-015
 C-C,M3Y-fcc-static      ,   1990000000.0000000      ,   3.9460096329773407E-006
 C-C,M3Y-fcc-static      ,   2980000000.0000000      ,  0.51274231132875803     
 C-C,M3Y-fcc-static      ,   3970000000.0000000      ,   1410.4844954395276     
 C-C,M3Y-fcc-static      ,   4960000000.0000000      ,   517503.26363770844     
 C-C,M3Y-fcc-static      ,   5950000000.0000000      ,   55517907.757154420     
 C-C,M3Y-fcc-static      ,   6940000000.0000000      ,   2612843924.8815370     
 C-C,M3Y-fcc-static      ,   7930000000.0000000      ,   68260233340.120201     
 C-C,M3Y-fcc-static      ,   8920000000.0000000      ,   1147069086984.8752     
 C-C,M3Y-fcc-static      ,   9910000000.0000000      ,   13709215081972.396     
 C-C,M3Y-fcc-static      ,   10900000000.000000      ,   124973590641974.12     
 C-C,M3Y-fcc-static      ,   11890000000.000000      ,   913311888309172.88     
 C-C,M3Y-fcc-static      ,   12880000000.000000      ,   5561209921535839.0     
 C-C,M3Y-fcc-static      ,   13870000000.000000      ,   29029511015178260.     
 C-C,M3Y-fcc-static      ,   14860000000.000000      ,   1.3290407342694901E+017
 C-C,M3Y-fcc-static      ,   15850000000.000000      ,   5.4382013783048499E+017
 C-C,M3Y-fcc-static      ,   16840000000.000000      ,   2.0145389629719355E+018
 C-C,M3Y-fcc-static      ,   17830000000.000000      ,   6.8594966864605891E+018
 C-C,M3Y-fcc-static      ,   18820000000.000000      ,   2.1604334055397986E+019
 C-C,M3Y-fcc-static      ,   19810000000.000000      ,   6.3688018329022005E+019
 C-C,M3Y-fcc-static      ,   20800000000.000000      ,   1.7660377113412285E+020
 C-C,M3Y-fcc-static      ,   21790000000.000000      ,   4.6352667495580126E+020
 C-C,M3Y-fcc-static      ,   22780000000.000000      ,   1.1576405455426060E+021
 C-C,M3Y-fcc-static      ,   23770000000.000000      ,   2.7663040334318482E+021
 C-C,M3Y-fcc-static      ,   24760000000.000000      ,   6.3455073843893083E+021
 C-C,M3Y-fcc-static      ,   25750000000.000000      ,   1.4017225990934347E+022
 C-C,M3Y-fcc-static      ,   26740000000.000000      ,   2.9935436127161647E+022
 C-C,M3Y-fcc-static      ,   27730000000.000000      ,   6.1873862146799390E+022
 C-C,M3Y-fcc-static      ,   28720000000.000000      ,   1.2425697674549037E+023
 C-C,M3Y-fcc-static      ,   29710000000.000000      ,   2.4296255275135009E+023
 C-C,M3Y-fcc-static      ,   30700000000.000000      ,   4.6276236003596459E+023
 C-C,M3Y-fcc-static      ,   31690000000.000000      ,   8.6140072565902068E+023
 C-C,M3Y-fcc-static      ,   32680000000.000000      ,   1.5684275217441804E+024
 C-C,M3Y-fcc-static      ,   33670000000.000000      ,   2.7991671609131073E+024
 C-C,M3Y-fcc-static      ,   34660000000.000000      ,   4.8957167552581696E+024
 C-C,M3Y-fcc-static      ,   35650000000.000000      ,   8.4175046633051930E+024
 C-C,M3Y-fcc-static      ,   36640000000.000000      ,   1.4224784750184074E+025
 C-C,M3Y-fcc-static      ,   37630000000.000000      ,   2.3633351449241315E+025
 C-C,M3Y-fcc-static      ,   38620000000.000000      ,   3.8704119617556335E+025
 C-C,M3Y-fcc-static      ,   39610000000.000000      ,   6.2556754174059058E+025
 C-C,M3Y-fcc-static      ,   40600000000.000000      ,   9.9538888590054394E+025
 C-C,M3Y-fcc-static      ,   41590000000.000000      ,   1.5648181793810721E+026
 C-C,M3Y-fcc-static      ,   42580000000.000000      ,   2.4311121564305107E+026
 C-C,M3Y-fcc-static      ,   43570000000.000000      ,   3.7339213088387580E+026
 C-C,M3Y-fcc-static      ,   44560000000.000000      ,   5.6734756991241054E+026
 C-C,M3Y-fcc-static      ,   45550000000.000000      ,   8.5363792818775397E+026
 C-C,M3Y-fcc-static      ,   46540000000.000000      ,   1.2719764310937893E+027
 C-C,M3Y-fcc-static      ,   47530000000.000000      ,   1.8786643563656285E+027
 C-C,M3Y-fcc-static      ,   48520000000.000000      ,   2.7566558154261169E+027
 C-C,M3Y-fcc-static      ,   49510000000.000000      ,   3.9824153321245769E+027
 C-C,M3Y-fcc-static      ,   50500000000.000000      ,   5.7013636233084717E+027
 C-C,M3Y-fcc-static      ,   51490000000.000000      ,   8.1001361876247325E+027
 C-C,M3Y-fcc-static      ,   52480000000.000000      ,   1.1421720932809080E+028
 C-C,M3Y-fcc-static      ,   53470000000.000000      ,   1.5985807920617070E+028
 C-C,M3Y-fcc-static      ,   54460000000.000000      ,   2.2212941417513291E+028
 C-C,M3Y-fcc-static      ,   55450000000.000000      ,   3.0657583707914529E+028
 C-C,M3Y-fcc-static      ,   56440000000.000000      ,   4.2046539367071917E+028
 C-C,M3Y-fcc-static      ,   57430000000.000000      ,   5.7327006101179862E+028
 C-C,M3Y-fcc-static      ,   58420000000.000000      ,   7.7566862670708699E+028
 C-C,M3Y-fcc-static      ,   59410000000.000000      ,   1.0443246503641125E+029
 C-C,M3Y-fcc-static      ,   60400000000.000000      ,   1.3998016080630680E+029
 C-C,M3Y-fcc-static      ,   61390000000.000000      ,   1.8609795202040809E+029
 C-C,M3Y-fcc-static      ,   62380000000.000000      ,   2.4662989101753767E+029
 C-C,M3Y-fcc-static      ,   63370000000.000000      ,   3.2482066494215960E+029
 C-C,M3Y-fcc-static      ,   64360000000.000000      ,   4.2568235561072862E+029
 C-C,M3Y-fcc-static      ,   65350000000.000000      ,   5.5634238641349334E+029
 C-C,M3Y-fcc-static      ,   66340000000.000000      ,   7.2196567482542631E+029
 C-C,M3Y-fcc-static      ,   67330000000.000000      ,   9.3307080882672610E+029
 C-C,M3Y-fcc-static      ,   68320000000.000000      ,   1.2010595359913467E+030
 C-C,M3Y-fcc-static      ,   69310000000.000000      ,   1.5398940131919146E+030
 C-C,M3Y-fcc-static      ,   70300000000.000000      ,   1.9665715013089588E+030
 C-C,M3Y-fcc-static      ,   71290000000.000000      ,   2.5016189533128633E+030
 C-C,M3Y-fcc-static      ,   72280000000.000000      ,   3.1696720698857749E+030
 C-C,M3Y-fcc-static      ,   73270000000.000000      ,   4.0005720689247079E+030
 C-C,M3Y-fcc-static      ,   74260000000.000000      ,   5.0308388829223205E+030
 C-C,M3Y-fcc-static      ,   75250000000.000000      ,   6.3047664819881588E+030
 C-C,M3Y-fcc-static      ,   76240000000.000000      ,   7.8756811360195073E+030
 C-C,M3Y-fcc-static      ,   77230000000.000000      ,   9.8076612287417771E+030
 C-C,M3Y-fcc-static      ,   78220000000.000000      ,   1.2177617972531803E+031
 C-C,M3Y-fcc-static      ,   79210000000.000000      ,   1.5077746662739513E+031
 C-C,M3Y-fcc-static      ,   80200000000.000000      ,   1.8563333175030539E+031
 C-C,M3Y-fcc-static      ,   81190000000.000000      ,   2.2831782781138586E+031
 C-C,M3Y-fcc-static      ,   82180000000.000000      ,   2.8019735380501886E+031
 C-C,M3Y-fcc-static      ,   83170000000.000000      ,   3.4222742838557349E+031
 C-C,M3Y-fcc-static      ,   84160000000.000000      ,   4.1734847308000926E+031
 C-C,M3Y-fcc-static      ,   85150000000.000000      ,   5.0815548987001397E+031
 C-C,M3Y-fcc-static      ,   86140000000.000000      ,   6.1539083404667042E+031
 C-C,M3Y-fcc-static      ,   87130000000.000000      ,   7.4522118691890324E+031
 C-C,M3Y-fcc-static      ,   88120000000.000000      ,   8.9846821603678714E+031
 C-C,M3Y-fcc-static      ,   89110000000.000000      ,   1.0824962101557132E+032
 C-C,M3Y-fcc-static      ,   90100000000.000000      ,   1.2990992831027790E+032
 C-C,M3Y-fcc-static      ,   91090000000.000000      ,   1.5580796089217580E+032
 C-C,M3Y-fcc-static      ,   92080000000.000000      ,   1.8610334830157761E+032
 C-C,M3Y-fcc-static      ,   93070000000.000000      ,   2.2232133724791170E+032
 C-C,M3Y-fcc-static      ,   94060000000.000000      ,   2.6431452042239687E+032
 C-C,M3Y-fcc-static      ,   95050000000.000000      ,   3.1404900430028690E+032
 C-C,M3Y-fcc-static      ,   96040000000.000000      ,   3.7241720929496355E+032
 C-C,M3Y-fcc-static      ,   97030000000.000000      ,   4.4024243074900061E+032
 C-C,M3Y-fcc-static      ,   98020000000.000000      ,   5.2022290607959956E+032
 C-C,M3Y-fcc-static      ,   99010000000.000000      ,   6.1302651919233963E+032
 C-C,M3Y-fcc-static      ,   100000000000.00000      ,   7.2052845989980979E+032
 C-C,M3Y-fcc-ws          ,   1000000000.0000000      ,   1.1952235428020983E-010
 C-C,M3Y-fcc-ws          ,   1990000000.0000000      ,  0.11770596350673318     
 C-C,M3Y-fcc-ws          ,   2980000000.0000000      ,   8131.3041458265971     
 C-C,M3Y-fcc-ws          ,   3970000000.0000000      ,   14643148.975518098     
 C-C,M3Y-fcc-ws          ,   4960000000.0000000      ,   3920207004.9779458     
 C-C,M3Y-fcc-ws          ,   5950000000.0000000      ,   327840721895.52277     
 C-C,M3Y-fcc-ws          ,   6940000000.0000000      ,   12571585856328.311     
 C-C,M3Y-fcc-ws          ,   7930000000.0000000      ,   276183066992384.34     
 C-C,M3Y-fcc-ws          ,   8920000000.0000000      ,   3995855680136955.5     
 C-C,M3Y-fcc-ws          ,   9910000000.0000000      ,   41873898826299224.     
 C-C,M3Y-fcc-ws          ,   10900000000.000000      ,   3.3959081042804762E+017
 C-C,M3Y-fcc-ws          ,   11890000000.000000      ,   2.2339894076113646E+018
 C-C,M3Y-fcc-ws          ,   12880000000.000000      ,   1.2364918621835790E+019
 C-C,M3Y-fcc-ws          ,   13870000000.000000      ,   5.9153619564773196E+019
 C-C,M3Y-fcc-ws          ,   14860000000.000000      ,   2.4993673442253983E+020
 C-C,M3Y-fcc-ws          ,   15850000000.000000      ,   9.4952487423589941E+020
 C-C,M3Y-fcc-ws          ,   16840000000.000000      ,   3.2828730712959295E+021
 C-C,M3Y-fcc-ws          ,   17830000000.000000      ,   1.0480610839497437E+022
 C-C,M3Y-fcc-ws          ,   18820000000.000000      ,   3.1074763820791966E+022
 C-C,M3Y-fcc-ws          ,   19810000000.000000      ,   8.6548511996111397E+022
 C-C,M3Y-fcc-ws          ,   20800000000.000000      ,   2.2747548821504212E+023
 C-C,M3Y-fcc-ws          ,   21790000000.000000      ,   5.6754414164160459E+023
 C-C,M3Y-fcc-ws          ,   22780000000.000000      ,   1.3509080583210720E+024
 C-C,M3Y-fcc-ws          ,   23770000000.000000      ,   3.0839799528210444E+024
 C-C,M3Y-fcc-ws          ,   24760000000.000000      ,   6.7729675720754600E+024
 C-C,M3Y-fcc-ws          ,   25750000000.000000      ,   1.4352826322861578E+025
 C-C,M3Y-fcc-ws          ,   26740000000.000000      ,   2.9458805487095411E+025
 C-C,M3Y-fcc-ws          ,   27730000000.000000      ,   5.8616551888797142E+025
 C-C,M3Y-fcc-ws          ,   28720000000.000000      ,   1.1349882234483618E+026
 C-C,M3Y-fcc-ws          ,   29710000000.000000      ,   2.1428516942149686E+026
 C-C,M3Y-fcc-ws          ,   30700000000.000000      ,   3.9461484528554050E+026
 C-C,M3Y-fcc-ws          ,   31690000000.000000      ,   7.1108881818197517E+026
 C-C,M3Y-fcc-ws          ,   32680000000.000000      ,   1.2548475151536377E+027
 C-C,M3Y-fcc-ws          ,   33670000000.000000      ,   2.1728779075090307E+027
 C-C,M3Y-fcc-ws          ,   34660000000.000000      ,   3.6910106021521407E+027
 C-C,M3Y-fcc-ws          ,   35650000000.000000      ,   6.1695072873638893E+027
 C-C,M3Y-fcc-ws          ,   36640000000.000000      ,   1.0144762928967236E+028
 C-C,M3Y-fcc-ws          ,   37630000000.000000      ,   1.6414174087436814E+028
 C-C,M3Y-fcc-ws          ,   38620000000.000000      ,   2.6199692218364661E+028
 C-C,M3Y-fcc-ws          ,   39610000000.000000      ,   4.1303532498127482E+028
 C-C,M3Y-fcc-ws          ,   40600000000.000000      ,   6.4149155232846757E+028
 C-C,M3Y-fcc-ws          ,   41590000000.000000      ,   9.8501345239192311E+028
 C-C,M3Y-fcc-ws          ,   42580000000.000000      ,   1.4956960680890387E+029
 C-C,M3Y-fcc-ws          ,   43570000000.000000      ,   2.2466200696763678E+029
 C-C,M3Y-fcc-ws          ,   44560000000.000000      ,   3.3403571098195472E+029
 C-C,M3Y-fcc-ws          ,   45550000000.000000      ,   4.9208226188501953E+029
 C-C,M3Y-fcc-ws          ,   46540000000.000000      ,   7.1827913014043131E+029
 C-C,M3Y-fcc-ws          ,   47530000000.000000      ,   1.0397596495924524E+030
 C-C,M3Y-fcc-ws          ,   48520000000.000000      ,   1.4960479353468913E+030
 C-C,M3Y-fcc-ws          ,   49510000000.000000      ,   2.1202602724751771E+030
 C-C,M3Y-fcc-ws          ,   50500000000.000000      ,   2.9791536431333577E+030
 C-C,M3Y-fcc-ws          ,   51490000000.000000      ,   4.1558688640471677E+030
 C-C,M3Y-fcc-ws          ,   52480000000.000000      ,   5.7561573385774047E+030
 C-C,M3Y-fcc-ws          ,   53470000000.000000      ,   7.9165583492496227E+030
 C-C,M3Y-fcc-ws          ,   54460000000.000000      ,   1.0813617879200861E+031
 C-C,M3Y-fcc-ws          ,   55450000000.000000      ,   1.4676485402197119E+031
 C-C,M3Y-fcc-ws          ,   56440000000.000000      ,   1.9800843801377031E+031
 C-C,M3Y-fcc-ws          ,   57430000000.000000      ,   2.6566017327777235E+031
 C-C,M3Y-fcc-ws          ,   58420000000.000000      ,   3.5383132320274456E+031
 C-C,M3Y-fcc-ws          ,   59410000000.000000      ,   4.6907522228404232E+031
 C-C,M3Y-fcc-ws          ,   60400000000.000000      ,   6.1928366445539042E+031
 C-C,M3Y-fcc-ws          ,   61390000000.000000      ,   8.1115829636729420E+031
 C-C,M3Y-fcc-ws          ,   62380000000.000000      ,   1.0594269364318484E+032
 C-C,M3Y-fcc-ws          ,   63370000000.000000      ,   1.3754554323082455E+032
 C-C,M3Y-fcc-ws          ,   64360000000.000000      ,   1.7773726157013691E+032
 C-C,M3Y-fcc-ws          ,   65350000000.000000      ,   2.2910450398621528E+032
 C-C,M3Y-fcc-ws          ,   66340000000.000000      ,   2.9329983145859203E+032
 C-C,M3Y-fcc-ws          ,   67330000000.000000      ,   3.7403773980641571E+032
 C-C,M3Y-fcc-ws          ,   68320000000.000000      ,   4.7519238499503672E+032
 C-C,M3Y-fcc-ws          ,   69310000000.000000      ,   6.0144424218061750E+032
 C-C,M3Y-fcc-ws          ,   70300000000.000000      ,   7.5841418075946493E+032
 C-C,M3Y-fcc-ws          ,   71290000000.000000      ,   9.5279568464629668E+032
 C-C,M3Y-fcc-ws          ,   72280000000.000000      ,   1.1925097896173953E+033
 C-C,M3Y-fcc-ws          ,   73270000000.000000      ,   1.4870419817407191E+033
 C-C,M3Y-fcc-ws          ,   74260000000.000000      ,   1.8478942334835642E+033
 C-C,M3Y-fcc-ws          ,   75250000000.000000      ,   2.2888692480894111E+033
 C-C,M3Y-fcc-ws          ,   76240000000.000000      ,   2.8263948463400252E+033
 C-C,M3Y-fcc-ws          ,   77230000000.000000      ,   3.4799915000622134E+033
 C-C,M3Y-fcc-ws          ,   78220000000.000000      ,   4.2728367972675107E+033
 C-C,M3Y-fcc-ws          ,   79210000000.000000      ,   5.2324231057336513E+033
 C-C,M3Y-fcc-ws          ,   80200000000.000000      ,   6.3724161767709212E+033
 C-C,M3Y-fcc-ws          ,   81190000000.000000      ,   7.7542039680978229E+033
 C-C,M3Y-fcc-ws          ,   82180000000.000000      ,   9.4162145701921990E+033
 C-C,M3Y-fcc-ws          ,   83170000000.000000      ,   1.1381671421162220E+034
 C-C,M3Y-fcc-ws          ,   84160000000.000000      ,   1.3738247166050653E+034
 C-C,M3Y-fcc-ws          ,   85150000000.000000      ,   1.6558887685423611E+034
 C-C,M3Y-fcc-ws          ,   86140000000.000000      ,   1.9853947012568686E+034
 C-C,M3Y-fcc-ws          ,   87130000000.000000      ,   2.3806750146304556E+034
 C-C,M3Y-fcc-ws          ,   88120000000.000000      ,   2.8424517378267562E+034
 C-C,M3Y-fcc-ws          ,   89110000000.000000      ,   3.3919327935577315E+034
 C-C,M3Y-fcc-ws          ,   90100000000.000000      ,   4.0322492197775657E+034
 C-C,M3Y-fcc-ws          ,   91090000000.000000      ,   4.7910561718409064E+034
 C-C,M3Y-fcc-ws          ,   92080000000.000000      ,   5.6700070701307085E+034
 C-C,M3Y-fcc-ws          ,   93070000000.000000      ,   6.7119446801544649E+034
 C-C,M3Y-fcc-ws          ,   94060000000.000000      ,   7.9081504283282352E+034
 C-C,M3Y-fcc-ws          ,   95050000000.000000      ,   9.3129175583636879E+034
 C-C,M3Y-fcc-ws          ,   96040000000.000000      ,   1.0947103055249632E+035
 C-C,M3Y-fcc-ws          ,   97030000000.000000      ,   1.2828862288535283E+035
 C-C,M3Y-fcc-ws          ,   98020000000.000000      ,   1.5029936520128922E+035
 C-C,M3Y-fcc-ws          ,   99010000000.000000      ,   1.7561517709415702E+035
 C-C,M3Y-fcc-ws          ,   100000000000.00000      ,   2.0468771078394645E+035
 C-C,M3Y-fcc-relax       ,   1000000000.0000000      ,   1.6629402386845657E-010
 C-C,M3Y-fcc-relax       ,   1990000000.0000000      ,  0.15681605708776153     
 C-C,M3Y-fcc-relax       ,   2980000000.0000000      ,   10584.364700511724     
 C-C,M3Y-fcc-relax       ,   3970000000.0000000      ,   18766122.754169554     
 C-C,M3Y-fcc-relax       ,   4960000000.0000000      ,   4966118492.3523245     
 C-C,M3Y-fcc-relax       ,   5950000000.0000000      ,   411523158102.50043     
 C-C,M3Y-fcc-relax       ,   6940000000.0000000      ,   15662140282439.818     
 C-C,M3Y-fcc-relax       ,   7930000000.0000000      ,   341894131588365.00     
 C-C,M3Y-fcc-relax       ,   8920000000.0000000      ,   4919425110325342.0     
 C-C,M3Y-fcc-relax       ,   9910000000.0000000      ,   51303746781687752.     
 C-C,M3Y-fcc-relax       ,   10900000000.000000      ,   4.1428023983778413E+017
 C-C,M3Y-fcc-relax       ,   11890000000.000000      ,   2.7148144125922785E+018
 C-C,M3Y-fcc-relax       ,   12880000000.000000      ,   1.4973618663487410E+019
 C-C,M3Y-fcc-relax       ,   13870000000.000000      ,   7.1404267690366034E+019
 C-C,M3Y-fcc-relax       ,   14860000000.000000      ,   3.0080960122931872E+020
 C-C,M3Y-fcc-relax       ,   15850000000.000000      ,   1.1396792145362957E+021
 C-C,M3Y-fcc-relax       ,   16840000000.000000      ,   3.9303247633904163E+021
 C-C,M3Y-fcc-relax       ,   17830000000.000000      ,   1.2517918369115852E+022
 C-C,M3Y-fcc-relax       ,   18820000000.000000      ,   3.7033018663169878E+022
 C-C,M3Y-fcc-relax       ,   19810000000.000000      ,   1.0292812904519126E+023
 C-C,M3Y-fcc-relax       ,   20800000000.000000      ,   2.6999372185055516E+023
 C-C,M3Y-fcc-relax       ,   21790000000.000000      ,   6.7237185222920283E+023
 C-C,M3Y-fcc-relax       ,   22780000000.000000      ,   1.5976008653375710E+024
 C-C,M3Y-fcc-relax       ,   23770000000.000000      ,   3.6410329874794986E+024
 C-C,M3Y-fcc-relax       ,   24760000000.000000      ,   7.9835720243312860E+024
 C-C,M3Y-fcc-relax       ,   25750000000.000000      ,   1.6892446240572906E+025
 C-C,M3Y-fcc-relax       ,   26740000000.000000      ,   3.4620729238088384E+025
 C-C,M3Y-fcc-relax       ,   27730000000.000000      ,   6.8791395853119649E+025
 C-C,M3Y-fcc-relax       ,   28720000000.000000      ,   1.3302178336349330E+026
 C-C,M3Y-fcc-relax       ,   29710000000.000000      ,   2.5082108801725627E+026
 C-C,M3Y-fcc-relax       ,   30700000000.000000      ,   4.6132523632402540E+026
 C-C,M3Y-fcc-relax       ,   31690000000.000000      ,   8.3030829999965815E+026
 C-C,M3Y-fcc-relax       ,   32680000000.000000      ,   1.4635473400156651E+027
 C-C,M3Y-fcc-relax       ,   33670000000.000000      ,   2.5314467173905242E+027
 C-C,M3Y-fcc-relax       ,   34660000000.000000      ,   4.2954896327237384E+027
 C-C,M3Y-fcc-relax       ,   35650000000.000000      ,   7.1724422338189146E+027
 C-C,M3Y-fcc-relax       ,   36640000000.000000      ,   1.1782082228372073E+028
 C-C,M3Y-fcc-relax       ,   37630000000.000000      ,   1.9044794764397283E+028
 C-C,M3Y-fcc-relax       ,   38620000000.000000      ,   3.0369899231441938E+028
 C-C,M3Y-fcc-relax       ,   39610000000.000000      ,   4.7833960760026908E+028
 C-C,M3Y-fcc-relax       ,   40600000000.000000      ,   7.4225565202958768E+028
 C-C,M3Y-fcc-relax       ,   41590000000.000000      ,   1.1387516065488599E+029
 C-C,M3Y-fcc-relax       ,   42580000000.000000      ,   1.7276857636909224E+029
 C-C,M3Y-fcc-relax       ,   43570000000.000000      ,   2.5929573859420537E+029
 C-C,M3Y-fcc-relax       ,   44560000000.000000      ,   3.8522307347214840E+029
 C-C,M3Y-fcc-relax       ,   45550000000.000000      ,   5.6704772812500640E+029
 C-C,M3Y-fcc-relax       ,   46540000000.000000      ,   8.2707732587763095E+029
 C-C,M3Y-fcc-relax       ,   47530000000.000000      ,   1.1963681844482427E+030
 C-C,M3Y-fcc-relax       ,   48520000000.000000      ,   1.7201413662564508E+030
 C-C,M3Y-fcc-relax       ,   49510000000.000000      ,   2.4361381451703683E+030
 C-C,M3Y-fcc-relax       ,   50500000000.000000      ,   3.4206354874296380E+030
 C-C,M3Y-fcc-relax       ,   51490000000.000000      ,   4.7685204345334420E+030
 C-C,M3Y-fcc-relax       ,   52480000000.000000      ,   6.6003788839998174E+030
 C-C,M3Y-fcc-relax       ,   53470000000.000000      ,   9.0717952872117862E+030
 C-C,M3Y-fcc-relax       ,   54460000000.000000      ,   1.2383814229684256E+031
 C-C,M3Y-fcc-relax       ,   55450000000.000000      ,   1.6797235069697869E+031
 C-C,M3Y-fcc-relax       ,   56440000000.000000      ,   2.2648386758571180E+031
 C-C,M3Y-fcc-relax       ,   57430000000.000000      ,   3.0368488655848003E+031
 C-C,M3Y-fcc-relax       ,   58420000000.000000      ,   4.0424184823644151E+031
 C-C,M3Y-fcc-relax       ,   59410000000.000000      ,   5.3560014105079320E+031
 C-C,M3Y-fcc-relax       ,   60400000000.000000      ,   7.0671736308344027E+031
 C-C,M3Y-fcc-relax       ,   61390000000.000000      ,   9.2517584217603280E+031
 C-C,M3Y-fcc-relax       ,   62380000000.000000      ,   1.2076932511595685E+032
 C-C,M3Y-fcc-relax       ,   63370000000.000000      ,   1.5671240862492112E+032
 C-C,M3Y-fcc-relax       ,   64360000000.000000      ,   2.0240009578693408E+032
 C-C,M3Y-fcc-relax       ,   65350000000.000000      ,   2.6076254920594825E+032
 C-C,M3Y-fcc-relax       ,   66340000000.000000      ,   3.3366191017599249E+032
 C-C,M3Y-fcc-relax       ,   67330000000.000000      ,   4.2530179081607362E+032
 C-C,M3Y-fcc-relax       ,   68320000000.000000      ,   5.4005980126179455E+032
 C-C,M3Y-fcc-relax       ,   69310000000.000000      ,   6.8322201919923066E+032
 C-C,M3Y-fcc-relax       ,   70300000000.000000      ,   8.6113339918030065E+032
 C-C,M3Y-fcc-relax       ,   71290000000.000000      ,   1.0813457465072637E+033
 C-C,M3Y-fcc-relax       ,   72280000000.000000      ,   1.3527911548558677E+033
 C-C,M3Y-fcc-relax       ,   73270000000.000000      ,   1.6861614111516422E+033
 C-C,M3Y-fcc-relax       ,   74260000000.000000      ,   2.0944170172201270E+033
 C-C,M3Y-fcc-relax       ,   75250000000.000000      ,   2.5931049463731602E+033
 C-C,M3Y-fcc-relax       ,   76240000000.000000      ,   3.2007212340957338E+033
 C-C,M3Y-fcc-relax       ,   77230000000.000000      ,   3.9392348991425250E+033
 C-C,M3Y-fcc-relax       ,   78220000000.000000      ,   4.8347204715551536E+033
 C-C,M3Y-fcc-relax       ,   79210000000.000000      ,   5.9180946480625825E+033
 C-C,M3Y-fcc-relax       ,   80200000000.000000      ,   7.2045974239340781E+033
 C-C,M3Y-fcc-relax       ,   81190000000.000000      ,   8.7633836147024163E+033
 C-C,M3Y-fcc-relax       ,   82180000000.000000      ,   1.0637568749076965E+034
 C-C,M3Y-fcc-relax       ,   83170000000.000000      ,   1.2853040051538718E+034
 C-C,M3Y-fcc-relax       ,   84160000000.000000      ,   1.5508408020930191E+034
 C-C,M3Y-fcc-relax       ,   85150000000.000000      ,   1.8685527553008749E+034
 C-C,M3Y-fcc-relax       ,   86140000000.000000      ,   2.2395540627839386E+034
 C-C,M3Y-fcc-relax       ,   87130000000.000000      ,   2.6844629832411794E+034
 C-C,M3Y-fcc-relax       ,   88120000000.000000      ,   3.2040190625828778E+034
 C-C,M3Y-fcc-relax       ,   89110000000.000000      ,   3.8220462587237716E+034
 C-C,M3Y-fcc-relax       ,   90100000000.000000      ,   4.5419751061401848E+034
 C-C,M3Y-fcc-relax       ,   91090000000.000000      ,   5.3948485332222947E+034
 C-C,M3Y-fcc-relax       ,   92080000000.000000      ,   6.3824009858449564E+034
 C-C,M3Y-fcc-relax       ,   93070000000.000000      ,   7.5527165338981424E+034
 C-C,M3Y-fcc-relax       ,   94060000000.000000      ,   8.8958175376715932E+034
 C-C,M3Y-fcc-relax       ,   95050000000.000000      ,   1.0472601707919229E+035
 C-C,M3Y-fcc-relax       ,   96040000000.000000      ,   1.2306303887855680E+035
 C-C,M3Y-fcc-relax       ,   97030000000.000000      ,   1.4417098000960879E+035
 C-C,M3Y-fcc-relax       ,   98020000000.000000      ,   1.6885338599976947E+035
 C-C,M3Y-fcc-relax       ,   99010000000.000000      ,   1.9723282699094278E+035
 C-C,M3Y-fcc-relax       ,   100000000000.00000      ,   2.2981322632638152E+035
